{
  "containerDefinitions": [
    {
      "name": "AWS_ENVIRONMENT-bookatable-migrations-mantleeventsmigrationapi",
      "memory": 50,
      "memoryReservation": 50,
      "cpu": 5,
      "essential": true,
      "environment": [
        {
          "name": "ASPNETCORE_ENVIRONMENT",
          "value": "AWS_ENVIRONMENT"
        }
      ],
      "entryPoint": [ "./ecs-entry.sh" ],
      "command": [ "dotnet", "Bookatable.Migrations.MantleEventsMigrationApi.dll" ],
      "image": "376814185569.dkr.ecr.eu-west-1.amazonaws.com/bookatable-migrations-mantleeventsmigrationapi-repository:BUILD_NUMBER",
      "portMappings": [
        {
          "containerPort": 80,
          "hostPort": 0,
          "protocol": "tcp"
        }
      ],
      "logConfiguration": {
        "logDriver": "awslogs",
        "options": {
          "awslogs-group": "ecs-AWS_ENVIRONMENT-services-netcore-cluster",
          "awslogs-region": "AWS_REGION",
          "awslogs-stream-prefix": "bookatable-migrations-mantleeventsmigrationapi"
        }
      }
    }
  ],
  "family": "AWS_ENVIRONMENT-bookatable-migrations-mantleeventsmigrationapi"
}
